{
    "installations": [
        {
            "name": "La Cour Intérieure",
            "img": "./img/cour.jpg"
        },
        {
            "name": "Les boxes",
            "img": "./img/boxes.jpg"
        },
        {
            "name": "Les boxes",
            "img": "./img/boxes2.jpg"
        },
        {
            "name": "La carrière",
            "img": "./img/carriere2.jpg"
        },
        {
            "name": "La carrière",
            "img": "./img/carriere.jpg"
        },
        {
            "name": "Le rond d'Havrincourt",
            "img": "./img/rond.jpg"
        },
        {
            "name": "Le solarium",
            "img": "./img/solarium.jpg"
        },
        {
            "name": "Les paddocks",
            "img": "./img/paddock.jpg"
        }
    ]
}