{
    "stallions": [
        {
            "name": "Les chevaux à vendre",
            "qualities": [],
            "img": "img/quatro.jpg",
            "childs": [
                {
                    "name": "Laiko d'Ock",
                    "img": "img/laiko.jpg",
                    "desc": "Mâle 2 ans CSAN par Fidjy of colors ( Le tôt de semilly X Royal Feu ) X mère SF originel ( Ephebe For Ever X Count Ivor )"
                },
                {
                    "name": "Mahor d'Ock",
                    "desc": "Mâle 1 an SF originel par gentleman d'elle ( Balko d'elle X Natif de Corday ) X mère sf Originel ( O'pif d'ivraie X Jivaro du Rouet )",
                    "img": "img/mahor.jpg"
                },
                {
                    "name": "Naash d'Ock",
                    "desc": "Mâle née en mai 2023 SF par Ipso facto berence ( Kannan X Clinton ) X mère SF originel ( Salto de l'isle X Count Ivor)",
                    "img": "img/nash.jpg"
                }
            ]
        }
    ]
}